<svg width="100" height="100" viewBox="0 0 100 100" fill="none" xmlns="http://www.w3.org/2000/svg">
<path fill-rule="evenodd" clip-rule="evenodd" d="M14.4353 14.4353C8.33333 20.5372 8.33333 30.3581 8.33333 50C8.33333 69.6417 8.33333 79.4629 14.4353 85.5646C20.5372 91.6667 30.3581 91.6667 50 91.6667C69.6417 91.6667 79.4629 91.6667 85.5646 85.5646C91.6667 79.4629 91.6667 69.6417 91.6667 50C91.6667 30.3581 91.6667 20.5372 85.5646 14.4353C79.4629 8.33333 69.6417 8.33333 50 8.33333C30.3581 8.33333 20.5372 8.33333 14.4353 14.4353ZM43.9296 31.3218C45.12 30.0721 45.0717 28.094 43.8217 26.9038C42.5721 25.7135 40.594 25.7617 39.4038 27.0115L29.7619 37.1354L27.2629 34.5115C26.0727 33.2617 24.0946 33.2135 22.8448 34.4038C21.595 35.594 21.5468 37.572 22.7371 38.8218L27.499 43.8217C28.0888 44.4413 28.9067 44.7917 29.7619 44.7917C30.6172 44.7917 31.435 44.4413 32.0248 43.8217L43.9296 31.3218ZM54.1667 34.375C52.4408 34.375 51.0417 35.7741 51.0417 37.5C51.0417 39.2259 52.4408 40.625 54.1667 40.625H75C76.7258 40.625 78.125 39.2259 78.125 37.5C78.125 35.7741 76.7258 34.375 75 34.375H54.1667ZM43.9296 60.4883C45.12 59.2388 45.0717 57.2608 43.8217 56.0704C42.5721 54.88 40.594 54.9283 39.4038 56.1783L29.7619 66.3021L27.2629 63.6783C26.0727 62.4283 24.0946 62.38 22.8448 63.5704C21.595 64.7608 21.5468 66.7388 22.7371 67.9883L27.499 72.9883C28.0888 73.6079 28.9067 73.9583 29.7619 73.9583C30.6172 73.9583 31.435 73.6079 32.0248 72.9883L43.9296 60.4883ZM54.1667 63.5417C52.4408 63.5417 51.0417 64.9408 51.0417 66.6667C51.0417 68.3925 52.4408 69.7917 54.1667 69.7917H75C76.7258 69.7917 78.125 68.3925 78.125 66.6667C78.125 64.9408 76.7258 63.5417 75 63.5417H54.1667Z" fill="#003AFF"/>
</svg>
